{"name":"Search for Album/Music by Categories","id":"categories;search-for-album/music-by-categories","testSteps":[{"number":1,"description":"Given I access Spotify","duration":8,"startTime":"2021-03-27T20:22:04.650003700Z[Europe/London]","result":"SUCCESS","precondition":false,"level":0},{"number":2,"description":"When I perform the Get operation for the category of an artist through the categories endpoint","duration":417,"startTime":"2021-03-27T20:22:04.661002300Z[Europe/London]","result":"SUCCESS","precondition":false,"level":0,"children":[{"number":3,"description":"POST https://accounts.spotify.com/api/token\r","duration":0,"startTime":"2021-03-27T20:22:04.864934700Z[Europe/London]","result":"SUCCESS","restQuery":{"method":"POST","path":"https://accounts.spotify.com/api/token\r","content":"grant_type\u003dclient_credentials\r","contentType":"application/x-www-form-urlencoded","requestHeaders":"Authorization\u003dBasic ZTA3ZDAxMGIyNjFiNGMzOTg1YTQ3N2FiMjBmMGJkMzc6MjRhZTA5ZTViYjJiNDA0YjgwNWY5ZTAxODU1NWQxODk\u003d\r\n\t\t\t\tAccept\u003d*/*\r\n\t\t\t\tContent-Type\u003dapplication/x-www-form-urlencoded; charset\u003dISO-8859-1\r","requestCookies":"\r","responseHeaders":"date: Sat, 27 Mar 2021 20:22:03 GMT\r\ncontent-type: application/json\r\nset-cookie: __Host-device_id\u003dAQA4BmOT6PEEcb3zHya02YxFQ7JxNYDm0648GuF5p7nGvYx0PFCO-vKNLvBlK7RCwJvw9DdTKMQo2-Yl0dixxs_h8IgXrz9PMqs;Version\u003d1;Path\u003d/;Max-Age\u003d2147483647;Secure;HttpOnly;SameSite\u003dLax\r\nsp-trace-id: 5c35617b07328dae\r\nstrict-transport-security: max-age\u003d31536000\r\nx-content-type-options: nosniff\r\ncontent-encoding: gzip\r\nvary: Accept-Encoding\r\nserver: envoy\r\nVia: HTTP/2 edgeproxy, 1.1 google\r\nAlt-Svc: clear\r\nTransfer-Encoding: chunked\r","responseCookies":"__Host-device_id\u003dAQA4BmOT6PEEcb3zHya02YxFQ7JxNYDm0648GuF5p7nGvYx0PFCO-vKNLvBlK7RCwJvw9DdTKMQo2-Yl0dixxs_h8IgXrz9PMqs;Path\u003d/;Max-Age\u003d2147483647;Secure;HttpOnly;Version\u003d1\r","responseBody":"{\n    \"access_token\": \"BQDDEsribaRucmhuBEtkkVdqw1rMDZOOKh0253pY_juC2hdVD_25zUGNxdFkrb_V0HMhQbWECOXdkNCXsns\",\n    \"token_type\": \"Bearer\",\n    \"expires_in\": 3600\n}","statusCode":200},"precondition":false,"level":1},{"number":4,"description":"GET https://api.spotify.com/v1/browse/categories/?limit\u003d3\u0026offset\u003d5\u0026locale\u003dpt_BR\r","duration":1,"startTime":"2021-03-27T20:22:05.074866Z[Europe/London]","result":"SUCCESS","restQuery":{"method":"GET","path":"https://api.spotify.com/v1/browse/categories/?limit\u003d3\u0026offset\u003d5\u0026locale\u003dpt_BR\r","content":"\r","contentType":"null","requestHeaders":"Authorization\u003dBearer BQDDEsribaRucmhuBEtkkVdqw1rMDZOOKh0253pY_juC2hdVD_25zUGNxdFkrb_V0HMhQbWECOXdkNCXsns\r\n\t\t\t\tAccept\u003d*/*\r","requestCookies":"\r","responseHeaders":"content-type: application/json; charset\u003dutf-8\r\ncache-control: public, max-age\u003d600\r\nx-robots-tag: noindex, nofollow\r\naccess-control-allow-origin: *\r\naccess-control-allow-headers: Accept, App-Platform, Authorization, Content-Type, Origin, Retry-After, Spotify-App-Version, X-Cloud-Trace-Context, client-token, content-access-token\r\naccess-control-allow-methods: GET, POST, OPTIONS, PUT, DELETE, PATCH\r\naccess-control-allow-credentials: true\r\naccess-control-max-age: 604800\r\ncontent-encoding: gzip\r\nstrict-transport-security: max-age\u003d31536000\r\nx-content-type-options: nosniff\r\ndate: Sat, 27 Mar 2021 20:22:03 GMT\r\nserver: envoy\r\nVia: HTTP/2 edgeproxy, 1.1 google\r\nAlt-Svc: clear\r\nTransfer-Encoding: chunked\r","responseCookies":"\r","responseBody":"{\n    \"categories\": {\n        \"href\": \"https://api.spotify.com/v1/browse/categories?locale\u003dpt_br\u0026offset\u003d5\u0026limit\u003d3\",\n        \"items\": [\n            {\n                \"href\": \"https://api.spotify.com/v1/browse/categories/decades\",\n                \"icons\": [\n                    {\n                        \"height\": null,\n                        \"url\": \"https://t.scdn.co/images/b611cf5145764c64b80e91ccd5f357c8\",\n                        \"width\": null\n                    }\n                ],\n                \"id\": \"decades\",\n                \"name\": \"Décadas\"\n            },\n            {\n                \"href\": \"https://api.spotify.com/v1/browse/categories/hiphop\",\n                \"icons\": [\n                    {\n                        \"height\": 274,\n                        \"url\": \"https://t.scdn.co/media/original/hip-274_0a661854d61e29eace5fe63f73495e68_274x274.jpg\",\n                        \"width\": 274\n                    }\n                ],\n                \"id\": \"hiphop\",\n                \"name\": \"Hip Hop\"\n            },\n            {\n                \"href\": \"https://api.spotify.com/v1/browse/categories/in_the_car\",\n                \"icons\": [\n                    {\n                        \"height\": null,\n                        \"url\": \"https://t.scdn.co/images/57017d435c344bb28efba325b7c9e7c6.jpeg\",\n                        \"width\": null\n                    }\n                ],\n                \"id\": \"in_the_car\",\n                \"name\": \"No carro\"\n            }\n        ],\n        \"limit\": 3,\n        \"next\": \"https://api.spotify.com/v1/browse/categories?locale\u003dpt_br\u0026offset\u003d8\u0026limit\u003d3\",\n        \"offset\": 5,\n        \"previous\": \"https://api.spotify.com/v1/browse/categories?locale\u003dpt_br\u0026offset\u003d2\u0026limit\u003d3\",\n        \"total\": 39\n    }\n}","statusCode":200},"precondition":false,"level":1}]},{"number":5,"description":"Then I should see the list of information about categories","duration":217,"startTime":"2021-03-27T20:22:05.079863800Z[Europe/London]","result":"SUCCESS","precondition":false,"level":0}],"userStory":{"id":"categories","storyName":"Categories","path":"src/test/resources/features/spotify/SearchMusicForCategories.feature","type":"feature"},"featureTag":{"name":"Spotify/Categories","type":"feature","displayName":"Spotify/Categories"},"title":"Search for Album/Music by Categories","startTime":"2021-03-27T20:22:04.640008300Z[Europe/London]","duration":660,"projectKey":"","isManualTestingUpToDate":false,"manual":false,"testSource":"Cucumber","result":"SUCCESS"}